<svg xmlns="http://www.w3.org/2000/svg" width="13" height="11" viewBox="0 0 13 11">
  <defs>
    <style>
      .cls-1 {
        fill: #939393;
        fill-rule: evenodd;
      }
    </style>
  </defs>
  <path id="icon_commentaries_copy_5" data-name="icon commentaries copy 5" class="cls-1" d="M1138.11,5451.27a6,6,0,0,0-2.37-1.67,9.048,9.048,0,0,0-6.48,0,6,6,0,0,0-2.37,1.67,3.631,3.631,0,0,0-.89,2.35,3.505,3.505,0,0,0,.68,2.06,5.155,5.155,0,0,0,1.64,1.49c-0.04.11-.08,0.21-0.12,0.31q-0.1.24-.18,0.39a2.854,2.854,0,0,1-.21.32,2.428,2.428,0,0,1-.2.25c-0.05.05-.13,0.14-0.24,0.26s-0.17.18-.21,0.23a0.653,0.653,0,0,0-.07.08l-0.05.05-0.01.01-0.05.07a0.42,0.42,0,0,0-.07.19v0.01a0.356,0.356,0,0,0,0,.23,0.537,0.537,0,0,0,.19.3,0.56,0.56,0,0,0,.35.13h0.06a5.567,5.567,0,0,0,.83-0.16,7.989,7.989,0,0,0,3.23-1.64c0.32,0.03.63,0.05,0.93,0.05a8.61,8.61,0,0,0,3.24-.61,5.883,5.883,0,0,0,2.37-1.66A3.561,3.561,0,0,0,1138.11,5451.27Zm-8.41,6.08,0.24-.84-0.77-.43a3.961,3.961,0,0,1-1.33-1.13,2.178,2.178,0,0,1,.21-2.91,4.759,4.759,0,0,1,1.88-1.22,7.409,7.409,0,0,1,5.14,0,4.759,4.759,0,0,1,1.88,1.22,2.283,2.283,0,0,1,.67,1.58,2.324,2.324,0,0,1-.67,1.59,4.759,4.759,0,0,1-1.88,1.22,7.022,7.022,0,0,1-2.57.46c-0.27,0-.57-0.02-0.88-0.05l-0.51-.06-0.38.33a6.641,6.641,0,0,1-1.24.85A6.263,6.263,0,0,0,1129.7,5457.35Z" transform="translate(-1126 -5449)"/>
</svg>
